{
  "defaultSeverity": "error",
  "extends": [
    "tslint:recommended"
  ],
  "jsRules": { },
  "rules": {
    "quotemark": [
      true,
      "single"
    ],
    "trailing-comma": false,
    "ordered-imports": false,
    "curly": false,
    "arrow-parens": false,
    "no-empty": false,
    "variable-name": false,
    "no-console": false,
    "interface-name": false,
    "callable-types": false,
    "object-literal-sort-keys": false
  },
  "rulesDirectory": []
}
