<svg xmlns="http://www.w3.org/2000/svg" width="24" height="24" viewBox="0 0 24 24">
  <g fill="none" fill-rule="evenodd">
    <path d="M0 0h24v24H0z"/>
    <path fill="#000" fill-rule="nonzero" d="M8 5v14l11-7z"/>
  </g>
</svg>
